{
  "Restauracja": "My Restaurant",
  "Potrawy": [
    "1) Schab z ziemniakami - 20zł",
    "2) Kaczka po wiedeńsku - 24zł",
    "3) Kapusta z grochem - 12zł",
    "4) Pizza mrożona - 8zł",
    "5) Pizza z pieca - 15zł"
  ]
}